<?xml version="1.0" encoding="UTF-8" standalone="no"?>
<svg
   xmlns:dc="http://purl.org/dc/elements/1.1/"
   xmlns:cc="http://creativecommons.org/ns#"
   xmlns:rdf="http://www.w3.org/1999/02/22-rdf-syntax-ns#"
   xmlns:svg="http://www.w3.org/2000/svg"
   xmlns="http://www.w3.org/2000/svg"
   xmlns:sodipodi="http://sodipodi.sourceforge.net/DTD/sodipodi-0.dtd"
   xmlns:inkscape="http://www.inkscape.org/namespaces/inkscape"
   width="32"
   height="32"
   viewBox="0 0 8.4666665 8.4666669"
   version="1.1"
   id="svg8"
   inkscape:version="1.0.2 (e86c870879, 2021-01-15)"
   sodipodi:docname="add-point.svg">
  <defs
     id="defs2">
    <marker
       style="overflow:visible;"
       id="marker1571"
       refX="0.0"
       refY="0.0"
       orient="auto"
       inkscape:stockid="Arrow1Send"
       inkscape:isstock="true">
      <path
         transform="scale(0.2) rotate(180) translate(6,0)"
         style="fill-rule:evenodd;stroke:#000000;stroke-width:1pt;stroke-opacity:1;fill:#000000;fill-opacity:1"
         d="M 0.0,0.0 L 5.0,-5.0 L -12.5,0.0 L 5.0,5.0 L 0.0,0.0 z "
         id="path1569" />
    </marker>
    <marker
       style="overflow:visible;"
       id="marker1561"
       refX="0.0"
       refY="0.0"
       orient="auto"
       inkscape:stockid="Arrow1Send"
       inkscape:isstock="true">
      <path
         transform="scale(0.2) rotate(180) translate(6,0)"
         style="fill-rule:evenodd;stroke:#000000;stroke-width:1pt;stroke-opacity:1;fill:#000000;fill-opacity:1"
         d="M 0.0,0.0 L 5.0,-5.0 L -12.5,0.0 L 5.0,5.0 L 0.0,0.0 z "
         id="path1559" />
    </marker>
    <marker
       style="overflow:visible"
       id="marker1459"
       refX="0.0"
       refY="0.0"
       orient="auto"
       inkscape:stockid="Arrow1Sstart"
       inkscape:isstock="true">
      <path
         transform="scale(0.2) translate(6,0)"
         style="fill-rule:evenodd;stroke:#000000;stroke-width:1pt;stroke-opacity:1;fill:#000000;fill-opacity:1"
         d="M 0.0,0.0 L 5.0,-5.0 L -12.5,0.0 L 5.0,5.0 L 0.0,0.0 z "
         id="path1457" />
    </marker>
    <marker
       style="overflow:visible"
       id="marker1449"
       refX="0.0"
       refY="0.0"
       orient="auto"
       inkscape:stockid="Arrow1Sstart"
       inkscape:isstock="true">
      <path
         transform="scale(0.2) translate(6,0)"
         style="fill-rule:evenodd;stroke:#000000;stroke-width:1pt;stroke-opacity:1;fill:#000000;fill-opacity:1"
         d="M 0.0,0.0 L 5.0,-5.0 L -12.5,0.0 L 5.0,5.0 L 0.0,0.0 z "
         id="path1447" />
    </marker>
    <marker
       style="overflow:visible"
       id="marker1357"
       refX="0.0"
       refY="0.0"
       orient="auto"
       inkscape:stockid="Arrow1Mstart"
       inkscape:isstock="true">
      <path
         transform="scale(0.4) translate(10,0)"
         style="fill-rule:evenodd;stroke:#000000;stroke-width:1pt;stroke-opacity:1;fill:#000000;fill-opacity:1"
         d="M 0.0,0.0 L 5.0,-5.0 L -12.5,0.0 L 5.0,5.0 L 0.0,0.0 z "
         id="path1355" />
    </marker>
    <marker
       style="overflow:visible"
       id="marker1347"
       refX="0.0"
       refY="0.0"
       orient="auto"
       inkscape:stockid="Arrow1Mstart"
       inkscape:isstock="true">
      <path
         transform="scale(0.4) translate(10,0)"
         style="fill-rule:evenodd;stroke:#000000;stroke-width:1pt;stroke-opacity:1;fill:#000000;fill-opacity:1"
         d="M 0.0,0.0 L 5.0,-5.0 L -12.5,0.0 L 5.0,5.0 L 0.0,0.0 z "
         id="path1345" />
    </marker>
    <marker
       style="overflow:visible"
       id="marker1279"
       refX="0.0"
       refY="0.0"
       orient="auto"
       inkscape:stockid="Arrow1Mstart"
       inkscape:isstock="true">
      <path
         transform="scale(0.4) translate(10,0)"
         style="fill-rule:evenodd;stroke:#000000;stroke-width:1pt;stroke-opacity:1;fill:#000000;fill-opacity:1"
         d="M 0.0,0.0 L 5.0,-5.0 L -12.5,0.0 L 5.0,5.0 L 0.0,0.0 z "
         id="path1277" />
    </marker>
    <marker
       style="overflow:visible"
       id="marker1269"
       refX="0.0"
       refY="0.0"
       orient="auto"
       inkscape:stockid="Arrow1Mstart"
       inkscape:isstock="true">
      <path
         transform="scale(0.4) translate(10,0)"
         style="fill-rule:evenodd;stroke:#000000;stroke-width:1pt;stroke-opacity:1;fill:#000000;fill-opacity:1"
         d="M 0.0,0.0 L 5.0,-5.0 L -12.5,0.0 L 5.0,5.0 L 0.0,0.0 z "
         id="path1267" />
    </marker>
    <marker
       style="overflow:visible"
       id="marker1215"
       refX="0.0"
       refY="0.0"
       orient="auto"
       inkscape:stockid="Arrow1Lstart"
       inkscape:isstock="true">
      <path
         transform="scale(0.8) translate(12.5,0)"
         style="fill-rule:evenodd;stroke:#000000;stroke-width:1pt;stroke-opacity:1;fill:#000000;fill-opacity:1"
         d="M 0.0,0.0 L 5.0,-5.0 L -12.5,0.0 L 5.0,5.0 L 0.0,0.0 z "
         id="path1213" />
    </marker>
    <marker
       style="overflow:visible"
       id="marker1205"
       refX="0.0"
       refY="0.0"
       orient="auto"
       inkscape:stockid="Arrow1Lstart"
       inkscape:isstock="true">
      <path
         transform="scale(0.8) translate(12.5,0)"
         style="fill-rule:evenodd;stroke:#000000;stroke-width:1pt;stroke-opacity:1;fill:#000000;fill-opacity:1"
         d="M 0.0,0.0 L 5.0,-5.0 L -12.5,0.0 L 5.0,5.0 L 0.0,0.0 z "
         id="path1203" />
    </marker>
  </defs>
  <sodipodi:namedview
     id="base"
     pagecolor="#ffffff"
     bordercolor="#666666"
     borderopacity="1.0"
     inkscape:pageopacity="0.0"
     inkscape:pageshadow="2"
     inkscape:zoom="11.313708"
     inkscape:cx="10.719613"
     inkscape:cy="23.333538"
     inkscape:document-units="mm"
     inkscape:current-layer="g2063"
     inkscape:document-rotation="0"
     showgrid="false"
     units="px"
     inkscape:window-width="1730"
     inkscape:window-height="1023"
     inkscape:window-x="0"
     inkscape:window-y="2187"
     inkscape:window-maximized="0"
     inkscape:snap-global="true" />
  <metadata
     id="metadata5">
    <rdf:RDF>
      <cc:Work
         rdf:about="">
        <dc:format>image/svg+xml</dc:format>
        <dc:type
           rdf:resource="http://purl.org/dc/dcmitype/StillImage" />
        <dc:title></dc:title>
      </cc:Work>
    </rdf:RDF>
  </metadata>
  <g
     inkscape:label="Warstwa 1"
     inkscape:groupmode="layer"
     id="layer1">
    <path
       style="fill:none;stroke:#000000;stroke-width:0.264583px;stroke-linecap:butt;stroke-linejoin:miter;stroke-opacity:1"
       d="M 0.53557042,8.0811821 2.7556669,3.6126131 8.1110372,0.87146277"
       id="path1999" />
    <g
       id="g915"
       transform="matrix(0.13731089,0,0,0.13731089,1.1071153,2.5533015)">
      <path
         fill="#e0e0e0"
         d="m 27.8,39.7 c -0.1,0 -0.2,0 -0.4,-0.1 -0.2,-0.1 -0.4,-0.3 -0.6,-0.5 l -3.7,-8.6 -4.5,4.2 C 18.5,34.9 18.3,35 18,35 17.9,35 17.7,35 17.6,34.9 17.3,34.8 17,34.4 17,34 V 12 c 0,-0.4 0.2,-0.8 0.6,-0.9 C 17.7,11 17.9,11 18,11 c 0.2,0 0.5,0.1 0.7,0.3 l 16,15 c 0.3,0.3 0.4,0.7 0.3,1.1 -0.1,0.4 -0.5,0.6 -0.9,0.7 l -6.3,0.6 3.9,8.5 c 0.1,0.2 0.1,0.5 0,0.8 -0.1,0.2 -0.3,0.5 -0.5,0.6 l -2.9,1.3 c -0.2,-0.2 -0.4,-0.2 -0.5,-0.2 z"
         id="path901" />
      <path
         fill="#212121"
         d="m 18,12 16,15 -7.7,0.7 4.5,9.8 -2.9,1.3 L 23.6,28.9 18,34 V 12 m 0,-2 c -0.3,0 -0.5,0.1 -0.8,0.2 -0.7,0.3 -1.2,1 -1.2,1.8 v 22 c 0,0.8 0.5,1.5 1.2,1.8 0.3,0.2 0.6,0.2 0.8,0.2 0.5,0 1,-0.2 1.4,-0.5 l 3.4,-3.2 3.1,7.3 c 0.2,0.5 0.6,0.9 1.1,1.1 0.2,0.1 0.5,0.1 0.7,0.1 0.3,0 0.5,-0.1 0.8,-0.2 l 2.9,-1.3 c 0.5,-0.2 0.9,-0.6 1.1,-1.1 0.2,-0.5 0.2,-1.1 0,-1.5 l -3.3,-7.2 4.9,-0.4 c 0.8,-0.1 1.5,-0.6 1.7,-1.3 0.3,-0.7 0.1,-1.6 -0.5,-2.1 l -16,-15 C 19,10.2 18.5,10 18,10 Z"
         id="path903" />
    </g>
    <g
       id="g2063"
       transform="rotate(-45,2.5725369,3.3534676)">
      <path
         style="fill:none;stroke:#00ff20;stroke-width:0.529167;stroke-linecap:butt;stroke-linejoin:miter;stroke-miterlimit:4;stroke-dasharray:none;stroke-opacity:1"
         d="M 1.3371203,2.1180511 3.8079534,4.588884"
         id="path2021" />
      <path
         style="fill:none;stroke:#00ff20;stroke-width:0.529167;stroke-linecap:butt;stroke-linejoin:miter;stroke-miterlimit:4;stroke-dasharray:none;stroke-opacity:1"
         d="M 1.3371203,4.588884 3.8079534,2.1180511"
         id="path2023" />
    </g>
  </g>
</svg>
